<?xml version="1.0" encoding="utf-8"?>
<!-- Generator: Adobe Illustrator 19.0.0, SVG Export Plug-In . SVG Version: 6.00 Build 0)  -->
<svg version="1.1" id="Warstwa_1" xmlns="http://www.w3.org/2000/svg" xmlns:xlink="http://www.w3.org/1999/xlink" x="0px" y="0px"
	 viewBox="0 0 80 80" style="enable-background:new 0 0 80 80;" xml:space="preserve">
<style type="text/css">
	.st0{fill:#30302F;}
	.st1{fill:#262626;}
	.st2{fill:#3F9D00;}
</style>
<circle id="XMLID_379_" class="st0" cx="40" cy="40" r="39.9"/>
<g id="XMLID_325_">
	<path id="XMLID_321_" class="st1" d="M54.9,14.7L54.9,14.7l-8.4,3.9l-2.7-1.4c-2.5-1.3-5.5-0.3-6.8,2.2l-0.5,0.9
		c-1.2,2.3-0.4,5.1,1.7,6.5L22.8,42.2l1.7,1.7l23.2-23.2l6.7-3.1l1.7,1.7l-6.5,3.2L16.7,55.3l12.6,12.6l2.1-2.1l-2-2l1.7-1.7l2,2
		l1.7-1.7l-2-2l1.7-1.7l2,2l25.7-25.6l-6.3-6.3l4.8-4.8l1.7,1.7l1.7-1.7L54.9,14.7z M40.4,24.6l-0.3-0.2L40,24.3
		c-1-0.5-1.4-1.7-0.9-2.7l0.5-0.9c0.2-0.5,0.7-0.8,1.2-1c0.5-0.2,1-0.1,1.5,0.1l1.8,0.9L40.4,24.6z M39.2,36.7l-0.6-0.6l12-12
		l0.6,0.6L39.2,36.7z"/>
	<path id="XMLID_317_" class="st2" d="M52.2,12.1L52.2,12.1L43.8,16L41,14.6c-2.5-1.3-5.5-0.3-6.8,2.2l-0.5,0.9
		c-1.2,2.3-0.4,5.1,1.7,6.5L20.1,39.6l1.7,1.7L45,18l6.7-3.1l1.7,1.7l-6.5,3.2L14,52.7l12.6,12.6l2.1-2.1l-2-2l1.7-1.7l2,2l1.7-1.7
		l-2-2l1.7-1.7l2,2l25.7-25.6l-6.3-6.3l4.8-4.8l1.7,1.7l1.7-1.7L52.2,12.1z M37.7,21.9l-0.3-0.2l-0.1-0.1c-1-0.5-1.4-1.7-0.9-2.7
		l0.5-0.9c0.2-0.5,0.7-0.8,1.2-1c0.5-0.2,1-0.1,1.5,0.1l1.8,0.9L37.7,21.9z M36.5,34.1l-0.6-0.6l12-12l0.6,0.6L36.5,34.1z"/>
</g>
</svg>
