<?xml version="1.0" encoding="utf-8"?>
<!-- Generator: Adobe Illustrator 19.0.0, SVG Export Plug-In . SVG Version: 6.00 Build 0)  -->
<svg version="1.1" id="Warstwa_1" xmlns="http://www.w3.org/2000/svg" xmlns:xlink="http://www.w3.org/1999/xlink" x="0px" y="0px"
	 viewBox="0 0 80 80" style="enable-background:new 0 0 80 80;" xml:space="preserve">
<style type="text/css">
	.st0{fill:#30302F;}
	.st1{fill:#262626;}
	.st2{fill:#3F9D00;}
	.st3{fill:#4EB200;}
</style>
<circle id="XMLID_1178_" class="st0" cx="39.9" cy="40" r="39.9"/>
<path id="XMLID_1151_" class="st1" d="M56.4,57.1l6.3-24l16,16.1c0,0,0.7-3,0,0c-3.5,14.7-15.1,26.3-29.9,29.7c-2.9,0.7,0,0,0,0
	L32.7,62.8L56.4,57.1z"/>
<path id="XMLID_1150_" class="st2" d="M62.7,33.1c-2.1,2.1-7,7-7,7l0,15.8l-14.3-0.1l-1.6,0l-7.2,7l30,0L62.7,33.1z"/>
<path id="XMLID_1147_" class="st1" d="M49.5,19.9c-2.1,2.1-6.6,6.5-6.6,6.5l-16.2,0l0.1,14.7l0,1.6l-7,7.2l-2.7-2.7l2.6-27.4
	l27.1-2.6L49.5,19.9z"/>
<polygon id="XMLID_1144_" class="st1" points="19.9,56.6 17.2,62.4 19.9,65.1 28.5,65.1 65.3,28.3 65.3,19.9 62.6,17.2 56.6,19.9 
	"/>
<path id="XMLID_1143_" class="st2" d="M46.8,17.2c-2.1,2.1-6.6,6.5-6.6,6.5l-16.2,0l0.1,14.7l0,1.6l-7,7.2l0-30L46.8,17.2z"/>
<polygon id="XMLID_1142_" class="st3" points="17.2,53.9 17.2,62.4 25.9,62.4 62.6,25.7 62.6,17.2 54,17.2 "/>
</svg>
