<?xml version="1.0" encoding="utf-8"?>
<!-- Generator: Adobe Illustrator 19.0.0, SVG Export Plug-In . SVG Version: 6.00 Build 0)  -->
<svg version="1.1" id="Warstwa_1" xmlns="http://www.w3.org/2000/svg" xmlns:xlink="http://www.w3.org/1999/xlink" x="0px" y="0px"
	 viewBox="0 0 80 80" style="enable-background:new 0 0 80 80;" xml:space="preserve">
<style type="text/css">
	.st0{fill:#30302F;}
	.st1{fill:#262626;}
	.st2{fill:#3F9D00;}
	.st3{fill:#3F9D46;}
</style>
<circle id="XMLID_1160_" class="st0" cx="40" cy="40" r="39.9"/>
<circle id="XMLID_1157_" class="st0" cx="40" cy="40" r="39.9"/>
<path id="XMLID_1154_" class="st1" d="M33.6,57.4l8.1-24l3.4-1.9l22.9-4.5l12,11.9c0,0,0,0.8,0,1.2c0,17.4-11.1,32.2-26.6,37.6
	c-3.7,1.3,0,0,0,0L33.6,57.4z"/>
<polygon id="XMLID_1139_" class="st1" points="42.3,32.7 39.3,29.4 37.8,27.8 33.8,22.8 36,19.9 46.2,17.2 48.7,19.9 50.8,22.8 
	46.8,27.8 "/>
<path id="XMLID_1136_" class="st1" d="M14.8,29.6l-2.7-2.7l21,2.7l4.5,4.5l-3.2,11.6l-8.1-3.1l-2.7-2.7l7.6-3.9L26,36
	C26,36,19.5,34.3,14.8,29.6"/>
<path id="XMLID_1135_" class="st2" d="M67.7,26.9H49.6L45,31.5L48.2,43l8.1-3.1l-4.8-6.6l5.2,0c0,0,6.5-1.7,11.2-6.3"/>
<polygon id="XMLID_1134_" class="st2" points="38.1,33.3 39.9,35.1 41.6,33.4 46.2,57.4 39.9,62.8 33.6,57.4 "/>
<rect id="XMLID_1133_" x="38.1" y="17.2" class="st3" width="3.3" height="2.6"/>
<polygon id="XMLID_1132_" class="st2" points="39.8,30 35.3,25.1 31.3,20.1 33.5,17.2 46.2,17.2 48.3,20.1 44.3,25.1 "/>
<path id="XMLID_1131_" class="st2" d="M12.4,26.9h18.1l4.5,4.5L31.8,43l-8.1-3.1l4.8-6.6l-5.2,0c0,0-6.5-1.7-11.2-6.3"/>
</svg>
